{
    "defaultSeverity": "error",
    "extends": [
        "tslint:recommended"
    ],
    "jsRules": {},
    "rules": {
        "semicolon": [true, "never" ],
        "quotemark": [true, "single", "avoid-escape"],
        "object-literal-shorthand": false
    },
    "rulesDirectory": []
}